QUARTO_information
…
Netlify - это другая платформа для размещения статических сайтов. Для публикации на Netlify, вам нужно настроить ваш RMarkdown-документ для автоматической интеграции с Netlify. Это можно сделать, добавив файл netlify.toml в корневой каталог вашего проекта с указанием настроек. В netlify.toml вы можете указать команды сборки и развертывания.

Пример netlify.toml: [build]   publish = "_site"   command = "quarto render --to html"

В этом примере, команда quarto render --to html будет использоваться для рендеринга вашего документа в формат HTML, и результат будет размещен в каталог _site. Затем Netlify автоматически развернет ваш проект.

Возможности интерактивности: Quarto также поддерживает интерактивные графики, таблицы и другие элементы, которые делают ваши документы более динамичными и информативными.

library(ggplot2)
library(tidyverse)
library(nycflights13)
flights

# A tibble: 336,776 × 19
    year month   day dep_time sched_dep_time dep_delay arr_time sched_arr_time
   <int> <int> <int>    <int>          <int>     <dbl>    <int>          <int>
 1  2013     1     1      517            515         2      830            819
 2  2013     1     1      533            529         4      850            830
 3  2013     1     1      542            540         2      923            850
 4  2013     1     1      544            545        -1     1004           1022
 5  2013     1     1      554            600        -6      812            837
 6  2013     1     1      554            558        -4      740            728
 7  2013     1     1      555            600        -5      913            854
 8  2013     1     1      557            600        -3      709            723
 9  2013     1     1      557            600        -3      838            846
10  2013     1     1      558            600        -2      753            745
# ℹ 336,766 more rows
# ℹ 11 more variables: arr_delay <dbl>, carrier <chr>, flight <int>,
#   tailnum <chr>, origin <chr>, dest <chr>, air_time <dbl>, distance <dbl>,
#   hour <dbl>, minute <dbl>, time_hour <dttm>
…
